<?xml version="1.0" encoding="UTF-8"?>
<session version="1.0">
<refactoring comment="Rename resource &apos;AssignmentDelloit&apos; to &apos;AssignmentDeloitte&apos;" description="Rename resource &apos;AssignmentDelloit&apos;" flags="7" id="org.eclipse.ltk.core.refactoring.rename.resource" input="/AssignmentDelloit" name="AssignmentDeloitte" stamp="1464973777412" updateReferences="true"/>
</session>